GPs and Automatic Relevance Detection
…
ARD_ent %>% arrange(Values)

## # A tibble: 34 x 3
##    Parameters      Values Model   
##    <chr>            <dbl> <chr>   
##  1 error            0.355 All data
##  2 p_transfer_info  0.361 All data
##  3 error            0.364 Subset  
##  4 p_transfer_info  0.369 Subset  
##  5 p_info_mingle    0.551 All data
##  6 p_info_mingle    0.551 Subset  
##  7 p_info_contacts  0.907 All data
##  8 p_drop_contact   0.931 Subset  
##  9 p_drop_contact   0.934 All data
## 10 p_info_contacts  0.977 Subset  
## # ... with 24 more rows
…
ARD_cap %>% arrange(Values)

## # A tibble: 34 x 3
##    Parameters      Values Model   
##    <chr>            <dbl> <chr>   
##  1 p_transfer_info  0.409 All data
##  2 p_transfer_info  0.434 Subset  
##  3 ben_resources    0.478 All data
##  4 costs_stay       0.554 Subset  
##  5 costs_stay       0.672 All data
##  6 error            1.09  All data
##  7 ben_resources    1.25  Subset  
##  8 costs_move       1.53  Subset  
##  9 p_info_contacts  1.60  All data
## 10 p_info_contacts  1.74  Subset  
## # ... with 24 more rows
…
