Morris Screening
…
k <- 2
N <- 100
x <- seq(0,1, 0.05)

# generate a simple grid like design for ease of plotting
X <- as.matrix(expand.grid(replicate(k, x, simplify = F)))
# Observations
Y <- true_function(X)

# stick this in a single dataset
X_df <- as_tibble(X) %>% mutate(y=Y)
X_df

## # A tibble: 441 x 3
##     Var1  Var2 y[,1]
##    <dbl> <dbl> <dbl>
##  1  0        0  3   
##  2  0.05     0  2.97
##  3  0.1      0  2.95
##  4  0.15     0  2.92
##  5  0.2      0  2.90
##  6  0.25     0  2.87
##  7  0.3      0  2.85
##  8  0.35     0  2.82
##  9  0.4      0  2.80
## 10  0.45     0  2.77
## # ... with 431 more rows
…
